name,description,message
Group formation::Please create the groups::Dear Students,<br/><br/>Thank you for attending the introduction class meeting organized.As the course is project based, first of all, you should create groups of 5 people.Please make sure to finalize forming groups by the end of week 1.
Mentoring Sessions::The weekly mentoring sessions::Dear All,<br/><br/>I have posted the Groups Mentoring sessions in the resource section. In the file you'll be able to see your scheduled mentoring sessions (every Wednesday). Please be advised that attending the mentoring sessions are mandatory every week.
Phase1 Start::Phase1 Start::Dear All,<br/><br/>the phase1 will start at this week, please to talk to your mentor for more details.
Guest Lecture Week2::Week2 guest lecture::Dear All,<br/><br/>We are fortunate to have a guest lecture today provided to you by Shayan Zamani. The title of the lecture is "Bot Development (Chatbots: Concepts, Development Methods, and Tools)". Where Shayan will discuss chatbots more specifically key concepts and components behind the scene. Also, he will explain how to build a rule-based chatbot by using a simple but robust approach.
