name,description,created_date_time,updated_date_time
Team Rocket::This Team is focusing on making a bot, recruit like-minded members::12/05/2019::12/05/2019
Team Magma::Come on guys; this is a fun team, let's create our dream project and enjoy this course.::12/05/2019::12/05/2019
Team Aqua::Looking for one frontend people and one backend people.::12/05/2019::12/05/2019
Team Galactic::This is a private group::12/05/2019::12/05/2019
Team Plasma::Want to create a website, welcome stagers::12/05/2019::12/05/2019
Team Flare::This Team is focusing on machine learning, only recruit members with relevant experience::12/05/2019::12/05/2019
Team Skull::Welcome newcomers, we can learn and advance together.::12/05/2019::12/05/2019